C:\Users\andre\Desktop\Api_Galileo_Mysql\galileo\src\main\java\fr\isika\projet4\galileo\message\requete\User.java
C:\Users\andre\Desktop\Api_Galileo_Mysql\galileo\src\main\java\fr\isika\projet4\galileo\repository\UtilisateurRepository.java
C:\Users\andre\Desktop\Api_Galileo_Mysql\galileo\src\main\java\fr\isika\projet4\galileo\security\jwt\JwtAuthEntryPoint.java
C:\Users\andre\Desktop\Api_Galileo_Mysql\galileo\src\main\java\fr\isika\projet4\galileo\services\UtilisateurDetailsServiceImpl.java
C:\Users\andre\Desktop\Api_Galileo_Mysql\galileo\src\main\java\fr\isika\projet4\galileo\message\requete\SignUpForm.java
C:\Users\andre\Desktop\Api_Galileo_Mysql\galileo\src\main\java\fr\isika\projet4\galileo\message\reponse\AuteurReponse.java
C:\Users\andre\Desktop\Api_Galileo_Mysql\galileo\src\main\java\fr\isika\projet4\galileo\repository\LivreRepository.java
C:\Users\andre\Desktop\Api_Galileo_Mysql\galileo\src\main\java\fr\isika\projet4\galileo\message\requete\LivreLu.java
C:\Users\andre\Desktop\Api_Galileo_Mysql\galileo\src\main\java\fr\isika\projet4\galileo\repository\RoleRepository.java
C:\Users\andre\Desktop\Api_Galileo_Mysql\galileo\src\main\java\fr\isika\projet4\galileo\services\UtilisateurDao.java
C:\Users\andre\Desktop\Api_Galileo_Mysql\galileo\src\main\java\fr\isika\projet4\galileo\controller\AuthRestApis.java
C:\Users\andre\Desktop\Api_Galileo_Mysql\galileo\src\main\java\fr\isika\projet4\galileo\message\requete\AjoutLivre.java
C:\Users\andre\Desktop\Api_Galileo_Mysql\galileo\src\main\java\fr\isika\projet4\galileo\security\jwt\JwtProvider.java
C:\Users\andre\Desktop\Api_Galileo_Mysql\galileo\src\main\java\fr\isika\projet4\galileo\models\Auteur.java
C:\Users\andre\Desktop\Api_Galileo_Mysql\galileo\src\main\java\fr\isika\projet4\galileo\GalileoApplication.java
C:\Users\andre\Desktop\Api_Galileo_Mysql\galileo\src\main\java\fr\isika\projet4\galileo\message\reponse\LivreReponse.java
C:\Users\andre\Desktop\Api_Galileo_Mysql\galileo\src\main\java\fr\isika\projet4\galileo\message\reponse\JwtReponse.java
C:\Users\andre\Desktop\Api_Galileo_Mysql\galileo\src\main\java\fr\isika\projet4\galileo\message\requete\LoginForm.java
C:\Users\andre\Desktop\Api_Galileo_Mysql\galileo\src\main\java\fr\isika\projet4\galileo\message\requete\AjoutAuteur.java
C:\Users\andre\Desktop\Api_Galileo_Mysql\galileo\src\main\java\fr\isika\projet4\galileo\message\requete\MonAuteur.java
C:\Users\andre\Desktop\Api_Galileo_Mysql\galileo\src\main\java\fr\isika\projet4\galileo\models\Livre.java
C:\Users\andre\Desktop\Api_Galileo_Mysql\galileo\src\main\java\fr\isika\projet4\galileo\repository\AuteurRepository.java
C:\Users\andre\Desktop\Api_Galileo_Mysql\galileo\src\main\java\fr\isika\projet4\galileo\services\LivreDao.java
C:\Users\andre\Desktop\Api_Galileo_Mysql\galileo\src\main\java\fr\isika\projet4\galileo\models\Role.java
C:\Users\andre\Desktop\Api_Galileo_Mysql\galileo\src\main\java\fr\isika\projet4\galileo\models\RoleName.java
C:\Users\andre\Desktop\Api_Galileo_Mysql\galileo\src\main\java\fr\isika\projet4\galileo\security\ConfigurationSecuriteWeb.java
C:\Users\andre\Desktop\Api_Galileo_Mysql\galileo\src\main\java\fr\isika\projet4\galileo\models\Utilisateur.java
C:\Users\andre\Desktop\Api_Galileo_Mysql\galileo\src\main\java\fr\isika\projet4\galileo\security\jwt\JwtAuthTokenFilter.java
